stepB.vcd
$date
	Sun Feb 01 16:19:25 2026
$end
$version
	Icarus Verilog
$end
$timescale
	1ps
$end
$scope module tb_cpu1_stepB $end
$var wire 8 ! pc [7:0] $end
$var wire 32 " instr [31:0] $end
$var wire 1 # dmem_we $end
$var wire 32 $ dmem_wdata [31:0] $end
$var wire 8 % dmem_waddr [7:0] $end
$var wire 32 & dmem_rdata [31:0] $end
$var wire 8 ' dmem_raddr [7:0] $end
$var wire 2 ( dmem_mode [1:0] $end
$var parameter 32 ) EXP0 $end
$var parameter 32 * EXP1 $end
$var parameter 32 + EXP2 $end
$var parameter 32 , EXP3 $end
$var parameter 32 - EXP4 $end
$var parameter 8 . PASS_ADDR $end
$var parameter 8 / SIG0 $end
$var parameter 8 0 SIG1 $end
$var parameter 8 1 SIG2 $end
$var parameter 8 2 SIG3 $end
$var parameter 8 3 SIG4 $end
$var parameter 32 4 TIMEOUT_CYCLES $end
$var reg 1 5 clk $end
$var reg 1 6 rst_n $end
$var reg 1 7 saw_pass $end
$var integer 32 8 cyc [31:0] $end
$var integer 32 9 fail [31:0] $end
$scope function read_word $end
$upscope $end
$scope module u_cpu $end
$var wire 1 : branch_taken_E $end
$var wire 1 5 clk $end
$var wire 32 ; d_out [31:0] $end
$var wire 1 6 n_rst $end
$var wire 8 < pc [7:0] $end
$var wire 8 = pc_next [7:0] $end
$var wire 1 > r_we $end
$var wire 1 ? use_imm_E $end
$var wire 1 # wr_en $end
$var wire 8 @ wr_addr [7:0] $end
$var wire 32 A wd [31:0] $end
$var wire 3 B s [2:0] $end
$var wire 5 C rs2 [4:0] $end
$var wire 5 D rs1 [4:0] $end
$var wire 32 E rdata2 [31:0] $end
$var wire 32 F rdata1 [31:0] $end
$var wire 32 G rd_data [31:0] $end
$var wire 8 H rd_addr [7:0] $end
$var wire 5 I rd [4:0] $end
$var wire 8 J pc_plus4 [7:0] $end
$var wire 7 K opcode [6:0] $end
$var wire 2 L mode [1:0] $end
$var wire 8 M jalr_target_D [7:0] $end
$var wire 32 N jalr_sum_D [31:0] $end
$var wire 8 O jal_target_D [7:0] $end
$var wire 32 P jal_sum_D [31:0] $end
$var wire 32 Q jal_link [31:0] $end
$var wire 1 R is_jalr_D $end
$var wire 1 S is_jal_D $end
$var wire 32 T instruction [31:0] $end
$var wire 32 U in_b [31:0] $end
$var wire 32 V in_a [31:0] $end
$var wire 32 W imm_u [31:0] $end
$var wire 32 X imm_sel [31:0] $end
$var wire 32 Y imm_s [31:0] $end
$var wire 32 Z imm_j [31:0] $end
$var wire 32 [ imm_i [31:0] $end
$var wire 32 \ imm_b [31:0] $end
$var wire 7 ] funct7 [6:0] $end
$var wire 3 ^ funct3 [2:0] $end
$var wire 32 _ d_in [31:0] $end
$var wire 8 ` branch_target [7:0] $end
$var wire 32 a branch_sum [31:0] $end
$var wire 1 b aluop $end
$var wire 32 c alu_res [31:0] $end
$var parameter 32 d BYTE $end
$var parameter 32 e DATA_W $end
$var parameter 32 f FUNCT3 $end
$var parameter 32 g FUNCT7 $end
$var parameter 64 h HALF $end
$var parameter 32 i IMM $end
$var parameter 32 j MEMORY_S $end
$var parameter 32 k OP $end
$var parameter 32 l OPCODE_W $end
$var parameter 32 m PC_W $end
$var parameter 32 n REG_S $end
$var parameter 32 o REG_W $end
$var parameter 32 p SHAMT_W $end
$var parameter 32 q STORE_M $end
$var parameter 64 r WORD $end
$var reg 32 s alu_res_M [31:0] $end
$var reg 32 t alu_res_W [31:0] $end
$var reg 1 u aluop_E $end
$var reg 3 v funct3_E [2:0] $end
$var reg 3 w funct3_M [2:0] $end
$var reg 32 x imm_E [31:0] $end
$var reg 32 y inst [31:0] $end
$var reg 7 z opcode_E [6:0] $end
$var reg 7 { opcode_M [6:0] $end
$var reg 7 | opcode_W [6:0] $end
$var reg 8 } pc_E [7:0] $end
$var reg 8 ~ pc_M [7:0] $end
$var reg 8 !" pc_W [7:0] $end
$var reg 8 "" pc_next_r [7:0] $end
$var reg 8 #" pc_reg [7:0] $end
$var reg 5 $" rd_E [4:0] $end
$var reg 5 %" rd_M [4:0] $end
$var reg 5 &" rd_W [4:0] $end
$var reg 32 '" rd_data_W [31:0] $end
$var reg 32 (" rdata_E1 [31:0] $end
$var reg 32 )" rdata_E2 [31:0] $end
$var reg 32 *" rdata_M1 [31:0] $end
$var reg 32 +" rdata_M2 [31:0] $end
$scope function rd_data_sel $end
$var reg 32 ," data [31:0] $end
$var reg 3 -" funct [2:0] $end
$upscope $end
$scope module alu $end
$var wire 32 ." a [31:0] $end
$var wire 32 /" b [31:0] $end
$var wire 1 u ext $end
$var wire 3 0" s [2:0] $end
$var wire 5 1" shamt [4:0] $end
$var parameter 32 2" DATA_W $end
$var parameter 32 3" OP $end
$var parameter 32 4" SHAMT_W $end
$var reg 32 5" y [31:0] $end
$upscope $end
$scope module rfile $end
$var wire 5 6" a1 [4:0] $end
$var wire 5 7" a2 [4:0] $end
$var wire 5 8" a3 [4:0] $end
$var wire 1 5 clk $end
$var wire 32 9" wd [31:0] $end
$var wire 1 > we $end
$var wire 32 :" x1 [31:0] $end
$var wire 32 ;" rd2 [31:0] $end
$var wire 32 <" rd1 [31:0] $end
$var parameter 32 =" DATA_W $end
$var parameter 32 >" REG_S $end
$var parameter 32 ?" REG_W $end
$upscope $end
$upscope $end
$scope module u_dmem $end
$var wire 1 5 clk $end
$var wire 32 @" d_in [31:0] $end
$var wire 2 A" mode [1:0] $end
$var wire 1 6 n_rst $end
$var wire 8 B" rd_addr [7:0] $end
$var wire 8 C" wr_addr [7:0] $end
$var wire 1 # wr_en $end
$var wire 32 D" d_out [31:0] $end
$var parameter 32 E" ADDR_WIDTH $end
$var parameter 152 F" DATA_INIT_FILE $end
$var parameter 32 G" DATA_W $end
$var parameter 32 H" M_STACK $end
$var parameter 32 I" M_WIDTH $end
$var parameter 32 J" PC_WIDTH $end
$var parameter 32 K" STORE_M $end
$var parameter 2 L" ST_B $end
$var parameter 2 M" ST_H $end
$var parameter 2 N" ST_W $end
$upscope $end
$scope module u_imem $end
$var wire 1 5 clk $end
$var wire 1 6 n_rst $end
$var wire 8 O" rd_addr [7:0] $end
$var wire 32 P" d_out [31:0] $end
$var parameter 32 Q" ADDR_WIDTH $end
$var parameter 32 R" DATA_W $end
$var parameter 144 S" MEM_INIT_FILE $end
$var parameter 32 T" M_STACK $end
$var parameter 32 U" M_WIDTH $end
$var parameter 32 V" PC_WIDTH $end
$upscope $end
$scope task check_sig $end
$upscope $end
$upscope $end
$enddefinitions $end
$comment Show the parameter values. $end
$dumpall
b1000 V"
b11111111111111111111111111111111 U"
b100000000 T"
b11011010110010101101101010111110110001101110000011101010011000101011111011100110111010001100101011100000100001000101110011000100110100101101110 S"
b100000 R"
b1000 Q"
b10 N"
b1 M"
b0 L"
b10 K"
b1000 J"
b11111111111111111111111111111111 I"
b100000000 H"
b100000 G"
b1100100011000010111010001100001010111110110001101110000011101010011000101011111011100110111010001100101011100000100001000101110011001000110000101110100 F"
b1000 E"
b101 ?"
b100000 >"
b100000 ="
b101 4"
b11 3"
b100000 2"
b100000 r
b10 q
b101 p
b101 o
b100000 n
b1000 m
b111 l
b11 k
b100000000 j
b100000 i
b10000 h
b111 g
b11 f
b100000 e
b1000 d
b11111010000 4
b10010000 3
b10001100 2
b10001000 1
b10000100 0
b10000000 /
b1000 .
b1 -
b0 ,
b0 +
b11001010111111101011101010111110 *
b11011110101011011011111011101111 )
$end
#0
$dumpvars
b1000000000000000000010010011 P"
b0 O"
bx D"
bx C"
bx B"
bx A"
bx @"
b0 <"
b0 ;"
bx :"
bx 9"
bx 8"
b0 7"
b0 6"
bx 5"
bx 1"
bx 0"
bx /"
bx ."
bx -"
bx ,"
bx +"
bx *"
bx )"
bx ("
bx '"
bx &"
bx %"
bx $"
b0 #"
b100 ""
bx !"
bx ~
bx }
bx |
bx {
bx z
b0 y
bx x
bx w
bx v
xu
bx t
bx s
bx c
0b
bx a
bx `
bx _
b0 ^
b0 ]
b0 \
b0 [
b0 Z
b0 Y
b0 X
b0 W
bx V
bx U
b1000000000000000000010010011 T
0S
0R
bx Q
b0 P
b0 O
b0 N
b0 M
bx L
b0 K
b100 J
b0 I
bx H
b0 G
b0 F
b0 E
b0 D
b0 C
bx B
bx A
bx @
x?
x>
b100 =
b0 <
bx ;
x:
b0 9
b0 8
07
06
05
bx (
bx '
bx &
bx %
bx $
x#
b1000000000000000000010010011 "
b0 !
$end
#5000
0?
b0 c
b0 5"
0:
b0 1"
b0 `
b0 V
b0 ."
b0 B
b0 0"
b0 U
b0 /"
b0 a
b0 }
b0 x
b0 z
0u
b0 v
b0 $"
b0 )"
b0 ("
b0 '"
b1 8
15
#10000
05
#15000
b11111111111111111111111111101111 G
b11011110101011011011111011101111 ,"
b0 -"
b0 (
b0 L
b0 A"
b11011110101011011011111011101111 &
b11011110101011011011111011101111 _
b11011110101011011011111011101111 D"
b0 '
b0 H
b0 B"
b0 %
b0 @
b0 C"
b0 ~
b0 $
b0 ;
b0 @"
b0 +"
b0 *"
0#
b0 {
b0 w
b0 %"
b0 s
b10 8
15
#20000
05
#25000
0>
b11111111111111111111111111101111 A
b11111111111111111111111111101111 9"
b100 Q
b0 !"
b0 t
b0 &"
b0 8"
b11111111111111111111111111101111 '"
b0 |
b11 8
15
#30000
05
#35000
b100 8
15
#40000
05
#45000
16
b101 8
15
#50000
05
#55000
b10000000 M
b10000000 N
b10000000 X
b10000100 O
b1000 =
b1000 ""
b100 ]
b1 I
b10011 K
b10000000 [
b10000001 Y
b100010000000 \
b10000000 Z
b1000000000000000000000000000 W
b10000100 P
b1000 J
b10000100000011 "
b10000100000011 T
b10000100000011 P"
b100 !
b100 <
b100 O"
b100 #"
b1000000000000000000010010011 y
b110 8
15
#60000
05
#65000
b10000000 c
b10000000 5"
b10000000 U
b10000000 /"
1?
b0 M
b0 N
b0 X
b10000100 `
b0 ]
b10 ^
b10 I
b11 K
b0 [
b10 Y
b10 \
b10000000000000 Z
b10000000000000 W
b1000 O
b1100 =
b1100 ""
b100 }
b10000100 a
b10000000 x
b10011 z
b1 $"
b10000100000011 y
b1000 P
b1100 J
b10011 "
b10011 T
b10011 P"
b1000 !
b1000 <
b1000 O"
b1000 #"
b111 8
15
#70000
05
#75000
1?
bx G
bx ,"
b0 c
b0 5"
bx &
bx _
bx D"
b10000000 '
b10000000 H
b10000000 B"
b10000000 %
b10000000 @
b10000000 C"
b0 U
b0 /"
b1000 `
b0 B
b0 0"
b1100 O
b10000 =
b10000 ""
b0 ^
b0 I
b10011 K
b0 Y
b0 \
b0 Z
b0 W
b100 ~
b10011 {
b1 %"
b10000000 s
b1000 }
b1000 a
b0 x
b11 z
b10 v
b10 $"
b1100 P
b10000 J
b1100 !
b1100 <
b1100 O"
b1100 #"
b10011 y
b1000 8
15
#80000
05
#85000
1>
b10000000 A
b10000000 9"
b1100 `
b11011110101011011011111011101111 G
b11011110101011011011111011101111 ,"
b10 -"
b10 (
b10 L
b10 A"
b11011110101011011011111011101111 &
b11011110101011011011111011101111 _
b11011110101011011011111011101111 D"
b0 '
b0 H
b0 B"
b0 %
b0 @
b0 C"
b10000 O
b10100 =
b10100 ""
b1100 a
b1100 }
b10011 z
b0 v
b0 $"
b1000 ~
b11 {
b10 w
b10 %"
b0 s
b1000 Q
b100 !"
b10000000 t
b1 &"
b1 8"
bx '"
b10011 |
b10000 P
b10100 J
b10000 !
b10000 <
b10000 O"
b10000 #"
b1001 8
15
#90000
05
#95000
1>
b11011110101011011011111011101111 A
b11011110101011011011111011101111 9"
b11111111111111111111111111101111 G
b0 -"
b0 (
b0 L
b0 A"
b10000 `
b10100 O
b11000 =
b11000 ""
b1100 Q
b1000 !"
b0 t
b10 &"
b10 8"
b11011110101011011011111011101111 '"
b11 |
b1100 ~
b10011 {
b0 w
b0 %"
b10000 a
b10000 }
b10000000 :"
b10100 P
b11000 J
b1000001010000000100011 "
b1000001010000000100011 T
b1000001010000000100011 P"
b10100 !
b10100 <
b10100 O"
b10100 #"
b1010 8
15
#100000
05
#105000
b0 A
b0 9"
b10000000 M
b11011110101011011011111011101111 E
b11011110101011011011111011101111 ;"
b10000000 F
b10000000 <"
b10000000 N
b0 X
b10100 `
b10 C
b10 7"
b1 D
b1 6"
b10 ^
b100011 K
b10 [
b1010000000000010 Z
b1000001010000000000000 W
b11000 O
b11100 =
b11100 ""
b10100 a
b10100 }
b10000 ~
b10000 Q
b1100 !"
b0 &"
b0 8"
b11111111111111111111111111101111 '"
b10011 |
b1000001010000000100011 y
b11000 P
b11100 J
b10000000010000100000011 "
b10000000010000100000011 T
b10000000010000100000011 P"
b11000 !
b11000 <
b11000 O"
b11000 #"
b1011 8
15
#110000
05
#115000
b0 1"
b0 U
b0 /"
1?
b10000000 c
b10000000 5"
b100 M
b100 X
b10000000 V
b10000000 ."
bx E
bx ;"
b100 N
b0 F
b0 <"
b11000 `
b0 B
b0 0"
b100000 O
b100000 =
b100000 ""
b100 C
b100 7"
b0 D
b0 6"
b10 I
b11 K
b100 [
b10 Y
b10 \
b10000000000100 Z
b10000000010000000000000 W
b10100 Q
b10000 !"
b10100 ~
b11000 a
b11000 }
b100011 z
b10 v
b11011110101011011011111011101111 )"
b10000000 ("
b100000 P
b100000 J
b10011 "
b10011 T
b10011 P"
b11100 !
b11100 <
b11100 O"
b11100 #"
b10000000010000100000011 y
b1100 8
15
#120000
05
#125000
b0 M
b100 c
b100 5"
b100 1"
b0 V
b0 ."
b0 E
b0 ;"
b0 N
b0 X
b100 U
b100 /"
b100000 `
bx G
bx ,"
b10 -"
b10 (
b10 L
b10 A"
bx &
bx _
bx D"
b10000000 '
b10000000 H
b10000000 B"
b10000000 %
b10000000 @
b10000000 C"
b0 C
b0 7"
b0 ^
b0 I
b10011 K
b0 [
b0 Y
b0 \
b0 Z
b0 W
b100000 O
b100100 =
b100100 ""
b11100 }
b100000 a
b100 x
b11 z
b10 $"
bx )"
b0 ("
b11000 ~
b11011110101011011011111011101111 $
b11011110101011011011111011101111 ;
b11011110101011011011111011101111 @"
b11011110101011011011111011101111 +"
b10000000 *"
1#
b100011 {
b10 w
b10000000 s
b11000 Q
b10100 !"
b10011 y
b100000 P
b100100 J
b100000 !
b100000 <
b100000 O"
b100000 #"
b1101 8
15
#130000
05
#135000
0>
bx A
bx 9"
b0 c
b0 5"
b0 1"
b100 '
b100 H
b100 B"
b100 %
b100 @
b100 C"
b0 U
b0 /"
b11001010111111101011101010111110 G
b11001010111111101011101010111110 ,"
b100100 O
b101000 =
b101000 ""
b11100 Q
b11000 !"
b10000000 t
bx '"
b100011 |
b11100 ~
bx $
bx ;
bx @"
bx +"
b0 *"
0#
b11 {
b10 %"
b100 s
b100000 }
b100000 a
b0 x
b10011 z
b0 v
b0 $"
b0 )"
b11001010111111101011101010111110 &
b11001010111111101011101010111110 _
b11001010111111101011101010111110 D"
b100100 P
b101000 J
b100100 !
b100100 <
b100100 O"
b100100 #"
b1110 8
15
#140000
05
#145000
1>
b100100 `
b11111111111111111111111111101111 G
b11011110101011011011111011101111 ,"
b0 -"
b0 (
b0 L
b0 A"
b11011110101011011011111011101111 &
b11011110101011011011111011101111 _
b11011110101011011011111011101111 D"
b0 '
b0 H
b0 B"
b0 %
b0 @
b0 C"
b11001010111111101011101010111110 A
b11001010111111101011101010111110 9"
b101000 O
b101100 =
b101100 ""
b100100 a
b100100 }
b100000 ~
b0 $
b0 ;
b0 @"
b0 +"
b10011 {
b0 w
b0 %"
b0 s
b100000 Q
b11100 !"
b100 t
b10 &"
b10 8"
b11001010111111101011101010111110 '"
b11 |
b101000 P
b101100 J
b1000001010001000100011 "
b1000001010001000100011 T
b1000001010001000100011 P"
b101000 !
b101000 <
b101000 O"
b101000 #"
b1111 8
15
#150000
05
#155000
b0 A
b0 9"
b10000100 M
b11001010111111101011101010111110 E
b11001010111111101011101010111110 ;"
b10000000 F
b10000000 <"
b10000100 N
b100 X
b101000 `
b110000 O
b110000 =
b110000 ""
b10 C
b10 7"
b1 D
b1 6"
b10 ^
b100 I
b100011 K
b10 [
b100 Y
b100 \
b1010000000000010 Z
b1000001010000000000000 W
b100100 Q
b100000 !"
b0 t
b0 &"
b0 8"
b11111111111111111111111111101111 '"
b10011 |
b100100 ~
b101000 a
b101000 }
b110000 P
b110000 J
b100010011 "
b100010011 T
b100010011 P"
b101100 !
b101100 <
b101100 O"
b101100 #"
b1000001010001000100011 y
b10000 8
15
#160000
05
#165000
1?
b10000100 c
b10000100 5"
b0 M
b0 X
b100 1"
b10000000 V
b10000000 ."
b0 E
b0 ;"
b0 N
b0 F
b0 <"
b100 U
b100 /"
b110000 `
b0 B
b0 0"
b0 C
b0 7"
b0 D
b0 6"
b0 ^
b10 I
b10011 K
b0 [
b10 Y
b10 \
b0 Z
b0 W
b110000 O
b110100 =
b110100 ""
b101100 }
b110000 a
b100 x
b100011 z
b10 v
b100 $"
b11001010111111101011101010111110 )"
b10000000 ("
b101000 ~
b101000 Q
b100100 !"
b100010011 y
b110000 P
b110100 J
b10011 "
b10011 T
b10011 P"
b110000 !
b110000 <
b110000 O"
b110000 #"
b10001 8
15
#170000
05
#175000
b0 c
b0 5"
b0 1"
b0 V
b0 ."
bx G
bx ,"
b10 -"
b10 (
b10 L
b10 A"
bx &
bx _
bx D"
b10000100 '
b10000100 H
b10000100 B"
b10000100 %
b10000100 @
b10000100 C"
b0 U
b0 /"
b110100 O
b111000 =
b111000 ""
b0 I
b0 Y
b0 \
b101100 Q
b101000 !"
b101100 ~
b11001010111111101011101010111110 $
b11001010111111101011101010111110 ;
b11001010111111101011101010111110 @"
b11001010111111101011101010111110 +"
b10000000 *"
1#
b100011 {
b10 w
b100 %"
b10000100 s
b110000 }
b110000 a
b0 x
b10011 z
b0 v
b10 $"
b0 )"
b0 ("
b110100 P
b111000 J
b110100 !
b110100 <
b110100 O"
b110100 #"
b10011 y
b10010 8
15
#180000
05
#185000
0>
bx A
bx 9"
b110100 `
b11111111111111111111111111101111 G
b11011110101011011011111011101111 ,"
b0 -"
b0 (
b0 L
b0 A"
b0 '
b0 H
b0 B"
b0 %
b0 @
b0 C"
b111000 O
b111100 =
b111100 ""
b11011110101011011011111011101111 &
b11011110101011011011111011101111 _
b11011110101011011011111011101111 D"
b110100 a
b110100 }
b0 $"
b110000 ~
b0 $
b0 ;
b0 @"
b0 +"
b0 *"
0#
b10011 {
b0 w
b10 %"
b0 s
b110000 Q
b101100 !"
b10000100 t
b100 &"
b100 8"
bx '"
b100011 |
b111000 P
b111100 J
b111000 !
b111000 <
b111000 O"
b111000 #"
b10011 8
15
#190000
05
#195000
1>
b0 A
b0 9"
b111000 `
b111100 O
b1000000 =
b1000000 ""
b110100 Q
b110000 !"
b0 t
b10 &"
b10 8"
b11111111111111111111111111101111 '"
b10011 |
b110100 ~
b0 %"
b111000 a
b111000 }
b111100 P
b1000000 J
b1000001010010000100011 "
b1000001010010000100011 T
b1000001010010000100011 P"
b111100 !
b111100 <
b111100 O"
b111100 #"
b10100 8
15
#200000
05
#205000
b10001000 M
b10000000 F
b10000000 <"
b10001000 N
b1000 X
b111100 `
b10 C
b10 7"
b1 D
b1 6"
b10 ^
b1000 I
b100011 K
b10 [
b1000 Y
b1000 \
b1010000000000010 Z
b1000001010000000000000 W
b1001000 O
b1000100 =
b1000100 ""
b111100 a
b111100 }
b111000 ~
b111000 Q
b110100 !"
b0 &"
b0 8"
b1000001010010000100011 y
b1001000 P
b1000100 J
b100010011 "
b100010011 T
b100010011 P"
b1000000 !
b1000000 <
b1000000 O"
b1000000 #"
b10101 8
15
#210000
05
#215000
1?
b10001000 c
b10001000 5"
b0 M
b0 X
b1000 1"
b10000000 V
b10000000 ."
b0 N
b0 F
b0 <"
b1000 U
b1000 /"
b1001000 `
b0 B
b0 0"
b1000100 O
b1001000 =
b1001000 ""
b0 C
b0 7"
b0 D
b0 6"
b0 ^
b10 I
b10011 K
b0 [
b10 Y
b10 \
b0 Z
b0 W
b111100 Q
b111000 !"
b111100 ~
b1000000 }
b1001000 a
b1000 x
b100011 z
b10 v
b1000 $"
b10000000 ("
b1000100 P
b1001000 J
b10011 "
b10011 T
b10011 P"
b1000100 !
b1000100 <
b1000100 O"
b1000100 #"
b100010011 y
b10110 8
15
#220000
05
#225000
b0 c
b0 5"
b0 1"
b0 V
b0 ."
b0 U
b0 /"
b1000100 `
bx G
bx ,"
b10 -"
b10 (
b10 L
b10 A"
bx &
bx _
bx D"
b10001000 '
b10001000 H
b10001000 B"
b10001000 %
b10001000 @
b10001000 C"
b0 I
b0 Y
b0 \
b1001000 O
b1001100 =
b1001100 ""
b1000100 }
b1000100 a
b0 x
b10011 z
b0 v
b10 $"
b0 ("
b1000000 ~
b10000000 *"
1#
b100011 {
b10 w
b1000 %"
b10001000 s
b1000000 Q
b111100 !"
b10011 y
b1001000 P
b1001100 J
b1001000 !
b1001000 <
b1001000 O"
b1001000 #"
b10111 8
15
#230000
05
#235000
0>
bx A
bx 9"
b0 (
b0 L
b0 A"
b0 '
b0 H
b0 B"
b0 %
b0 @
b0 C"
b1001000 `
b11111111111111111111111111101111 G
b11011110101011011011111011101111 ,"
b0 -"
b1001100 O
b1010000 =
b1010000 ""
b1000100 Q
b1000000 !"
b10001000 t
b1000 &"
b1000 8"
bx '"
b100011 |
b1000100 ~
b0 *"
0#
b10011 {
b0 w
b10 %"
b0 s
b1001000 a
b1001000 }
b0 $"
b11011110101011011011111011101111 &
b11011110101011011011111011101111 _
b11011110101011011011111011101111 D"
b1001100 P
b1010000 J
b1001100 !
b1001100 <
b1001100 O"
b1001100 #"
b11000 8
15
#240000
05
#245000
1>
b0 A
b0 9"
b1001100 `
b1010000 O
b1010100 =
b1010100 ""
b1001100 a
b1001100 }
b1001000 ~
b0 %"
b1001000 Q
b1000100 !"
b0 t
b10 &"
b10 8"
b11111111111111111111111111101111 '"
b10011 |
b1010000 P
b1010100 J
b1000001010011000100011 "
b1000001010011000100011 T
b1000001010011000100011 P"
b1010000 !
b1010000 <
b1010000 O"
b1010000 #"
b11001 8
15
#250000
05
#255000
b10001100 M
b10000000 F
b10000000 <"
b10001100 N
b1100 X
b1010000 `
b1100000 O
b1011000 =
b1011000 ""
b10 C
b10 7"
b1 D
b1 6"
b10 ^
b1100 I
b100011 K
b10 [
b1100 Y
b1100 \
b1010000000000010 Z
b1000001010000000000000 W
b1001100 Q
b1001000 !"
b0 &"
b0 8"
b1001100 ~
b1010000 a
b1010000 }
b1100000 P
b1011000 J
b100000000000100010011 "
b100000000000100010011 T
b100000000000100010011 P"
b1010100 !
b1010100 <
b1010100 O"
b1010100 #"
b1000001010011000100011 y
b11010 8
15
#260000
05
#265000
1?
b10001100 c
b10001100 5"
b1 M
b1 X
b1100 1"
b10000000 V
b10000000 ."
b10000000 E
b10000000 ;"
b1 N
b0 F
b0 <"
b1100 U
b1100 /"
b1100000 `
b0 B
b0 0"
b1 C
b1 7"
b0 D
b0 6"
b0 ^
b10 I
b10011 K
b1 [
b10 Y
b10 \
b100000000000 Z
b100000000000000000000 W
b1011001 O
b1011100 =
b1011100 ""
b1010100 }
b1100000 a
b1100 x
b100011 z
b10 v
b1100 $"
b10000000 ("
b1010000 ~
b1010000 Q
b1001100 !"
b100000000000100010011 y
b1011001 P
b1011100 J
b10011 "
b10011 T
b10011 P"
b1011000 !
b1011000 <
b1011000 O"
b1011000 #"
b11011 8
15
#270000
05
#275000
b0 M
b1 c
b1 5"
b1 1"
b0 V
b0 ."
b0 E
b0 ;"
b0 N
b0 X
bx G
bx ,"
b10 -"
b10 (
b10 L
b10 A"
bx &
bx _
bx D"
b10001100 '
b10001100 H
b10001100 B"
b10001100 %
b10001100 @
b10001100 C"
b1 U
b1 /"
b1011001 `
b1011100 O
b1100000 =
b1100000 ""
b0 C
b0 7"
b0 I
b0 [
b0 Y
b0 \
b0 Z
b0 W
b1010100 Q
b1010000 !"
b1010100 ~
b10000000 *"
1#
b100011 {
b10 w
b1100 %"
b10001100 s
b1011000 }
b1011001 a
b1 x
b10011 z
b0 v
b10 $"
b10000000 )"
b0 ("
b1011100 P
b1100000 J
b1011100 !
b1011100 <
b1011100 O"
b1011100 #"
b10011 y
b11100 8
15
#280000
05
#285000
0>
b0 c
b0 5"
b0 1"
bx A
bx 9"
b0 U
b0 /"
b1011100 `
b11111111111111111111111110111110 G
b10111110110111101010110110111110 ,"
b0 -"
b0 (
b0 L
b0 A"
b1 '
b1 H
b1 B"
b1 %
b1 @
b1 C"
b1100000 O
b1100100 =
b1100100 ""
b10111110110111101010110110111110 &
b10111110110111101010110110111110 _
b10111110110111101010110110111110 D"
b1011100 }
b1011100 a
b0 x
b0 $"
b0 )"
b1011000 ~
b10000000 $
b10000000 ;
b10000000 @"
b10000000 +"
b0 *"
0#
b10011 {
b0 w
b10 %"
b1 s
b1011000 Q
b1010100 !"
b10001100 t
b1100 &"
b1100 8"
bx '"
b100011 |
b1100000 P
b1100100 J
b1100000 !
b1100000 <
b1100000 O"
b1100000 #"
b11101 8
15
#290000
05
#295000
1>
b1 A
b1 9"
b11111111111111111111111111101111 G
b11011110101011011011111011101111 ,"
b11011110101011011011111011101111 &
b11011110101011011011111011101111 _
b11011110101011011011111011101111 D"
b0 '
b0 H
b0 B"
b0 %
b0 @
b0 C"
b1100000 `
b1100100 O
b1101000 =
b1101000 ""
b1011100 Q
b1011000 !"
b1 t
b10 &"
b10 8"
b11111111111111111111111110111110 '"
b10011 |
b1011100 ~
b0 $
b0 ;
b0 @"
b0 +"
b0 %"
b0 s
b1100000 a
b1100000 }
b1100100 P
b1101000 J
b1000001010100000100011 "
b1000001010100000100011 T
b1000001010100000100011 P"
b1100100 !
b1100100 <
b1100100 O"
b1100100 #"
b11110 8
15
#300000
05
#305000
b10010000 M
b0 A
b0 9"
b1 E
b1 ;"
b10000000 F
b10000000 <"
b10010000 N
b10000 X
b1100100 `
b10 C
b10 7"
b1 D
b1 6"
b10 ^
b10000 I
b100011 K
b10 [
b10000 Y
b10000 \
b1010000000000010 Z
b1000001010000000000000 W
b1111000 O
b1101100 =
b1101100 ""
b1100100 a
b1100100 }
b1100000 ~
b1100000 Q
b1011100 !"
b0 t
b0 &"
b0 8"
b11111111111111111111111111101111 '"
b1000001010100000100011 y
b1111000 P
b1101100 J
b100000000000100010011 "
b100000000000100010011 T
b100000000000100010011 P"
b1101000 !
b1101000 <
b1101000 O"
b1101000 #"
b11111 8
15
#310000
05
#315000
1?
b10010000 c
b10010000 5"
b1 M
b1 X
b10000 1"
b10000000 V
b10000000 ."
b10000000 E
b10000000 ;"
b1 N
b0 F
b0 <"
b10000 U
b10000 /"
b1111000 `
b0 B
b0 0"
b1101101 O
b1110000 =
b1110000 ""
b1 C
b1 7"
b0 D
b0 6"
b0 ^
b10 I
b10011 K
b1 [
b10 Y
b10 \
b100000000000 Z
b100000000000000000000 W
b1100100 Q
b1100000 !"
b1100100 ~
b1101000 }
b1111000 a
b10000 x
b100011 z
b10 v
b10000 $"
b1 )"
b10000000 ("
b1101101 P
b1110000 J
b10011 "
b10011 T
b10011 P"
b1101100 !
b1101100 <
b1101100 O"
b1101100 #"
b100000000000100010011 y
b100000 8
15
#320000
05
#325000
b0 M
b1 c
b1 5"
b1 1"
b0 V
b0 ."
b0 E
b0 ;"
b0 N
b0 X
b1 U
b1 /"
b1101101 `
bx G
bx ,"
b10 -"
b10 (
b10 L
b10 A"
bx &
bx _
bx D"
b10010000 '
b10010000 H
b10010000 B"
b10010000 %
b10010000 @
b10010000 C"
b0 C
b0 7"
b0 I
b0 [
b0 Y
b0 \
b0 Z
b0 W
b1110000 O
b1110100 =
b1110100 ""
b1101100 }
b1101101 a
b1 x
b10011 z
b0 v
b10 $"
b10000000 )"
b0 ("
b1101000 ~
b1 $
b1 ;
b1 @"
b1 +"
b10000000 *"
1#
b100011 {
b10 w
b10000 %"
b10010000 s
b1101000 Q
b1100100 !"
b10011 y
b1110000 P
b1110100 J
b1110000 !
b1110000 <
b1110000 O"
b1110000 #"
b100001 8
15
#330000
05
#335000
0>
bx A
bx 9"
b0 c
b0 5"
b0 1"
b0 (
b0 L
b0 A"
b1 '
b1 H
b1 B"
b1 %
b1 @
b1 C"
b0 U
b0 /"
b1110000 `
b11111111111111111111111110111110 G
b10111110110111101010110110111110 ,"
b0 -"
b1110100 O
b1111000 =
b1111000 ""
b1101100 Q
b1101000 !"
b10010000 t
b10000 &"
b10000 8"
bx '"
b100011 |
b1101100 ~
b10000000 $
b10000000 ;
b10000000 @"
b10000000 +"
b0 *"
0#
b10011 {
b0 w
b10 %"
b1 s
b1110000 }
b1110000 a
b0 x
b0 $"
b0 )"
b10111110110111101010110110111110 &
b10111110110111101010110110111110 _
b10111110110111101010110110111110 D"
b1110100 P
b1111000 J
b1110100 !
b1110100 <
b1110100 O"
b1110100 #"
b100010 8
15
#340000
05
#345000
1>
b1 A
b1 9"
b11111111111111111111111111101111 G
b11011110101011011011111011101111 ,"
b1110100 `
b11011110101011011011111011101111 &
b11011110101011011011111011101111 _
b11011110101011011011111011101111 D"
b0 '
b0 H
b0 B"
b0 %
b0 @
b0 C"
b1111000 O
b1111100 =
b1111100 ""
b1110100 a
b1110100 }
b1110000 ~
b0 $
b0 ;
b0 @"
b0 +"
b0 %"
b0 s
b1110000 Q
b1101100 !"
b1 t
b10 &"
b10 8"
b11111111111111111111111110111110 '"
b10011 |
b1111000 P
b1111100 J
b1000000010010000100011 "
b1000000010010000100011 T
b1000000010010000100011 P"
b1111000 !
b1111000 <
b1111000 O"
b1111000 #"
b100011 8
15
#350000
05
